{
  "metadata": [
    {
      "src": [
        {
          "files": ["src/**.csproj"],
          "exclude": [
            "src/**.Tests/",
            "**/bin/",
            "**/obj/",
            "**/ExampleConnector/",
            "**/*.Designer.cs",
            "**/*.Generated.cs"
          ]
        }
      ],
      "dest": "edr/api",
      "disableGitFeatures": true,
      "disableDefaultFilter": false
    }
  ],
  "build": {
    "content": [
      {
        "files": ["edr/api/**.yml", "edr/api/index.md"]
      },
      {
        "files": [
          "edr/connectors/**.md",
          "edr/connectors/**/toc.yml",
          "edr/examples/**.md",
          "edr/examples/**/toc.yml",
          "edr/how-to/**.md",
          "edr/how-to/**/toc.yml",
          "edr/steps/**.md",
          "edr/steps/**/toc.yml",
          "toc.yml",
          "*.md"
        ]
      }
    ],
    "resource": [
      {
        "files": [
          "images/**",
          "favicon.png",
          "edr/**.scl",
          "edr/**.csv",
          "edr/**.jpg",
          "edr/examples/configuration/*",
          "edr/examples/relativity/relativity-example-files.zip"
        ]
      }
    ],
    "overwrite": [
      {
        "files": ["apidoc/**.md"],
        "exclude": ["obj/**", "public/**"]
      }
    ],
    "dest": "public",
    "globalMetadata": {
      "_appLogoPath": "images/",
      "_appFaviconPath": "favicon.png",
      "_disableContribution": true,
      "_disableAffix": true
    },
    "globalMetadataFiles": [],
    "fileMetadataFiles": [],
    "template": ["default", "templates/reductech"],
    "postProcessors": [],
    "markdownEngineName": "markdig",
    "noLangKeyword": false,
    "keepFileLink": false,
    "cleanupCacheHistory": false,
    "disableGitFeatures": true
  }
}
